Transit (GTFS) Service & Headway Mapping with R
…
So, what are these service_id codes? How they are put together varies from operator to operator. The important thing is that the service_id’s are also a field on the trips table, which describes all the trips taken in the system.

Lets see how many trips fall under each of these service_id’s on the trips table, and how they relate to routes.

gtfs$trips %>%
  filter(service_id %in% service_ids) %>%
  group_by(service_id, route_id) %>%
  summarise(count = n())
#> # A tibble: 29 x 3
#> # Groups:   service_id [23]
#>    service_id               route_id count
#>    <chr>                    <chr>    <int>
#>  1 ASP18GEN-1087-Weekday-00 1          462
#>  2 ASP18GEN-2097-Weekday-00 2          324
#>  3 ASP18GEN-3086-Weekday-00 3          306
#>  4 ASP18GEN-4097-Weekday-00 4          370
#>  5 ASP18GEN-5106-Weekday-00 5          309
#>  6 ASP18GEN-5106-Weekday-00 5X          20
#>  7 ASP18GEN-6085-Weekday-00 6          435
#>  8 ASP18GEN-6085-Weekday-00 6X         113
#>  9 ASP18GEN-7058-Weekday-00 7          534
#> 10 ASP18GEN-7058-Weekday-00 7X         104
#> # … with 19 more rows
…
